scoutR - Visualising Dragon Ball Z Power Levels with the tidyverse & plotly - Calum Webb
…
db_data <- read_csv("../../static/Dragon_Ball_Data_Set.csv")

## Parsed with column specification:
## cols(
##   Character = col_character(),
##   Power_Level = col_character(),
##   Saga_or_Movie = col_character(),
##   Dragon_Ball_Series = col_character()
## )

db_data

## # A tibble: 1,244 x 4
##    Character     Power_Level Saga_or_Movie      Dragon_Ball_Series
##    <chr>         <chr>       <chr>              <chr>             
##  1 Goku          10          Emperor Pilaf Saga Dragon Ball       
##  2 Bulma         1.5         Emperor Pilaf Saga Dragon Ball       
##  3 Bear Thief    7           Emperor Pilaf Saga Dragon Ball       
##  4 Master Roshi  30          Emperor Pilaf Saga Dragon Ball       
##  5 Oolong        5           Emperor Pilaf Saga Dragon Ball       
##  6 Yamcha        8.5         Emperor Pilaf Saga Dragon Ball       
##  7 Puar          4           Emperor Pilaf Saga Dragon Ball       
##  8 Goku (hungry) 8           Emperor Pilaf Saga Dragon Ball       
##  9 Ox-King       25          Emperor Pilaf Saga Dragon Ball       
## 10 Chi-chi       6           Emperor Pilaf Saga Dragon Ball       
## # … with 1,234 more rows
…
